[
    {
        "product_id": 1,
        "code": "PANTS",
        "name": "Pants",
        "price": 5.00
    },
    {
        "product_id": 2,
        "code": "TSHIRT",
        "name": "T-Shirt",
        "price": 20.00
    },
    {
        "product_id": 3,
        "code": "HAT",
        "name": "Hat",
        "price": 7.50
    },
    {
        "product_id": 4,
        "code": "JACKET",
        "name": "Jacket",
        "price": 15.00
    }
]
